{
   "module": {
      "developers_group": {
         "custom_group_policy_arns": [
            "arn:aws:iam::aws:policy/PowerUserAccess"
         ],
         "group_users": [
            "user1",
            "user2",
            "user3",
            "user4",
            "user5",
            "user6",
            "user7",
            "user8",
            "user9",
            "user10",
            "user11",
            "user12",
            "user13",
            "user14",
            "user15",
            "user16",
            "user17",
            "user18",
            "user19",
            "user20"
         ],
         "name": "developers",
         "source": "git::https://github.com/terraform-aws-modules/terraform-aws-iam.git//modules/iam-group-with-policies?ref=v2.3.0"
      },
      "user1": {
         "create_iam_user_login_profile": false,
         "force_destroy": true,
         "name": "user1",
         "password_reset_required": false,
         "source": "git::https://github.com/terraform-aws-modules/terraform-aws-iam.git//modules/iam-user?ref=v2.3.0"
      },
      "user10": {
         "create_iam_user_login_profile": false,
         "force_destroy": true,
         "name": "user10",
         "password_reset_required": false,
         "source": "git::https://github.com/terraform-aws-modules/terraform-aws-iam.git//modules/iam-user?ref=v2.3.0"
      },
      "user11": {
         "create_iam_user_login_profile": false,
         "force_destroy": true,
         "name": "user11",
         "password_reset_required": false,
         "source": "git::https://github.com/terraform-aws-modules/terraform-aws-iam.git//modules/iam-user?ref=v2.3.0"
      },
      "user12": {
         "create_iam_user_login_profile": false,
         "force_destroy": true,
         "name": "user12",
         "password_reset_required": false,
         "source": "git::https://github.com/terraform-aws-modules/terraform-aws-iam.git//modules/iam-user?ref=v2.3.0"
      },
      "user13": {
         "create_iam_user_login_profile": false,
         "force_destroy": true,
         "name": "user13",
         "password_reset_required": false,
         "source": "git::https://github.com/terraform-aws-modules/terraform-aws-iam.git//modules/iam-user?ref=v2.3.0"
      },
      "user14": {
         "create_iam_user_login_profile": false,
         "force_destroy": true,
         "name": "user14",
         "password_reset_required": false,
         "source": "git::https://github.com/terraform-aws-modules/terraform-aws-iam.git//modules/iam-user?ref=v2.3.0"
      },
      "user15": {
         "create_iam_user_login_profile": false,
         "force_destroy": true,
         "name": "user15",
         "password_reset_required": false,
         "source": "git::https://github.com/terraform-aws-modules/terraform-aws-iam.git//modules/iam-user?ref=v2.3.0"
      },
      "user16": {
         "create_iam_user_login_profile": false,
         "force_destroy": true,
         "name": "user16",
         "password_reset_required": false,
         "source": "git::https://github.com/terraform-aws-modules/terraform-aws-iam.git//modules/iam-user?ref=v2.3.0"
      },
      "user17": {
         "create_iam_user_login_profile": false,
         "force_destroy": true,
         "name": "user17",
         "password_reset_required": false,
         "source": "git::https://github.com/terraform-aws-modules/terraform-aws-iam.git//modules/iam-user?ref=v2.3.0"
      },
      "user18": {
         "create_iam_user_login_profile": false,
         "force_destroy": true,
         "name": "user18",
         "password_reset_required": false,
         "source": "git::https://github.com/terraform-aws-modules/terraform-aws-iam.git//modules/iam-user?ref=v2.3.0"
      },
      "user19": {
         "create_iam_user_login_profile": false,
         "force_destroy": true,
         "name": "user19",
         "password_reset_required": false,
         "source": "git::https://github.com/terraform-aws-modules/terraform-aws-iam.git//modules/iam-user?ref=v2.3.0"
      },
      "user2": {
         "create_iam_user_login_profile": false,
         "force_destroy": true,
         "name": "user2",
         "password_reset_required": false,
         "source": "git::https://github.com/terraform-aws-modules/terraform-aws-iam.git//modules/iam-user?ref=v2.3.0"
      },
      "user20": {
         "create_iam_user_login_profile": false,
         "force_destroy": true,
         "name": "user20",
         "password_reset_required": false,
         "source": "git::https://github.com/terraform-aws-modules/terraform-aws-iam.git//modules/iam-user?ref=v2.3.0"
      },
      "user3": {
         "create_iam_user_login_profile": false,
         "force_destroy": true,
         "name": "user3",
         "password_reset_required": false,
         "source": "git::https://github.com/terraform-aws-modules/terraform-aws-iam.git//modules/iam-user?ref=v2.3.0"
      },
      "user4": {
         "create_iam_user_login_profile": false,
         "force_destroy": true,
         "name": "user4",
         "password_reset_required": false,
         "source": "git::https://github.com/terraform-aws-modules/terraform-aws-iam.git//modules/iam-user?ref=v2.3.0"
      },
      "user5": {
         "create_iam_user_login_profile": false,
         "force_destroy": true,
         "name": "user5",
         "password_reset_required": false,
         "source": "git::https://github.com/terraform-aws-modules/terraform-aws-iam.git//modules/iam-user?ref=v2.3.0"
      },
      "user6": {
         "create_iam_user_login_profile": false,
         "force_destroy": true,
         "name": "user6",
         "password_reset_required": false,
         "source": "git::https://github.com/terraform-aws-modules/terraform-aws-iam.git//modules/iam-user?ref=v2.3.0"
      },
      "user7": {
         "create_iam_user_login_profile": false,
         "force_destroy": true,
         "name": "user7",
         "password_reset_required": false,
         "source": "git::https://github.com/terraform-aws-modules/terraform-aws-iam.git//modules/iam-user?ref=v2.3.0"
      },
      "user8": {
         "create_iam_user_login_profile": false,
         "force_destroy": true,
         "name": "user8",
         "password_reset_required": false,
         "source": "git::https://github.com/terraform-aws-modules/terraform-aws-iam.git//modules/iam-user?ref=v2.3.0"
      },
      "user9": {
         "create_iam_user_login_profile": false,
         "force_destroy": true,
         "name": "user9",
         "password_reset_required": false,
         "source": "git::https://github.com/terraform-aws-modules/terraform-aws-iam.git//modules/iam-user?ref=v2.3.0"
      }
   },
   "output": {
      "user1": {
         "value": "export AWS_ACCESS_KEY_ID=${module.user1.this_iam_access_key_id} AWS_SECRET_ACCESS_KEY=${module.user1.this_iam_access_key_secret} AWS_REGION=eu-west-1"
      },
      "user10": {
         "value": "export AWS_ACCESS_KEY_ID=${module.user10.this_iam_access_key_id} AWS_SECRET_ACCESS_KEY=${module.user10.this_iam_access_key_secret} AWS_REGION=eu-west-1"
      },
      "user11": {
         "value": "export AWS_ACCESS_KEY_ID=${module.user11.this_iam_access_key_id} AWS_SECRET_ACCESS_KEY=${module.user11.this_iam_access_key_secret} AWS_REGION=eu-west-1"
      },
      "user12": {
         "value": "export AWS_ACCESS_KEY_ID=${module.user12.this_iam_access_key_id} AWS_SECRET_ACCESS_KEY=${module.user12.this_iam_access_key_secret} AWS_REGION=eu-west-1"
      },
      "user13": {
         "value": "export AWS_ACCESS_KEY_ID=${module.user13.this_iam_access_key_id} AWS_SECRET_ACCESS_KEY=${module.user13.this_iam_access_key_secret} AWS_REGION=eu-west-1"
      },
      "user14": {
         "value": "export AWS_ACCESS_KEY_ID=${module.user14.this_iam_access_key_id} AWS_SECRET_ACCESS_KEY=${module.user14.this_iam_access_key_secret} AWS_REGION=eu-west-1"
      },
      "user15": {
         "value": "export AWS_ACCESS_KEY_ID=${module.user15.this_iam_access_key_id} AWS_SECRET_ACCESS_KEY=${module.user15.this_iam_access_key_secret} AWS_REGION=eu-west-1"
      },
      "user16": {
         "value": "export AWS_ACCESS_KEY_ID=${module.user16.this_iam_access_key_id} AWS_SECRET_ACCESS_KEY=${module.user16.this_iam_access_key_secret} AWS_REGION=eu-west-1"
      },
      "user17": {
         "value": "export AWS_ACCESS_KEY_ID=${module.user17.this_iam_access_key_id} AWS_SECRET_ACCESS_KEY=${module.user17.this_iam_access_key_secret} AWS_REGION=eu-west-1"
      },
      "user18": {
         "value": "export AWS_ACCESS_KEY_ID=${module.user18.this_iam_access_key_id} AWS_SECRET_ACCESS_KEY=${module.user18.this_iam_access_key_secret} AWS_REGION=eu-west-1"
      },
      "user19": {
         "value": "export AWS_ACCESS_KEY_ID=${module.user19.this_iam_access_key_id} AWS_SECRET_ACCESS_KEY=${module.user19.this_iam_access_key_secret} AWS_REGION=eu-west-1"
      },
      "user2": {
         "value": "export AWS_ACCESS_KEY_ID=${module.user2.this_iam_access_key_id} AWS_SECRET_ACCESS_KEY=${module.user2.this_iam_access_key_secret} AWS_REGION=eu-west-1"
      },
      "user20": {
         "value": "export AWS_ACCESS_KEY_ID=${module.user20.this_iam_access_key_id} AWS_SECRET_ACCESS_KEY=${module.user20.this_iam_access_key_secret} AWS_REGION=eu-west-1"
      },
      "user3": {
         "value": "export AWS_ACCESS_KEY_ID=${module.user3.this_iam_access_key_id} AWS_SECRET_ACCESS_KEY=${module.user3.this_iam_access_key_secret} AWS_REGION=eu-west-1"
      },
      "user4": {
         "value": "export AWS_ACCESS_KEY_ID=${module.user4.this_iam_access_key_id} AWS_SECRET_ACCESS_KEY=${module.user4.this_iam_access_key_secret} AWS_REGION=eu-west-1"
      },
      "user5": {
         "value": "export AWS_ACCESS_KEY_ID=${module.user5.this_iam_access_key_id} AWS_SECRET_ACCESS_KEY=${module.user5.this_iam_access_key_secret} AWS_REGION=eu-west-1"
      },
      "user6": {
         "value": "export AWS_ACCESS_KEY_ID=${module.user6.this_iam_access_key_id} AWS_SECRET_ACCESS_KEY=${module.user6.this_iam_access_key_secret} AWS_REGION=eu-west-1"
      },
      "user7": {
         "value": "export AWS_ACCESS_KEY_ID=${module.user7.this_iam_access_key_id} AWS_SECRET_ACCESS_KEY=${module.user7.this_iam_access_key_secret} AWS_REGION=eu-west-1"
      },
      "user8": {
         "value": "export AWS_ACCESS_KEY_ID=${module.user8.this_iam_access_key_id} AWS_SECRET_ACCESS_KEY=${module.user8.this_iam_access_key_secret} AWS_REGION=eu-west-1"
      },
      "user9": {
         "value": "export AWS_ACCESS_KEY_ID=${module.user9.this_iam_access_key_id} AWS_SECRET_ACCESS_KEY=${module.user9.this_iam_access_key_secret} AWS_REGION=eu-west-1"
      }
   }
}
